build/logs/vlt_dump.vcd
$version Generated by VerilatedVcd $end
$date Thu Aug 26 15:10:56 2021 $end
$timescale 1ps $end

 $scope module top $end
  $var wire 12 K! PADDR_i [11:0] $end
  $var wire  1 O! PENABLE_i $end
  $var wire 32 P! PRDATA_o [31:0] $end
  $var wire  1 Q! PREADY_o $end
  $var wire  1 N! PSEL_i $end
  $var wire  1 R! PSLVERR_o $end
  $var wire 32 L! PWDATA_i [31:0] $end
  $var wire  1 M! PWRITE_i $end
  $var wire  1 I! clk $end
  $var wire  1 V! int_o $end
  $var wire  1 J! rst_n $end
  $var wire  8 U! upio_dir_o [7:0] $end
  $var wire  8 S! upio_in_i [7:0] $end
  $var wire  8 T! upio_out_o [7:0] $end
  $scope module top $end
   $var wire 12 K! PADDR_i [11:0] $end
   $var wire  1 O! PENABLE_i $end
   $var wire 32 P! PRDATA_o [31:0] $end
   $var wire  1 Q! PREADY_o $end
   $var wire  1 N! PSEL_i $end
   $var wire  1 R! PSLVERR_o $end
   $var wire 32 L! PWDATA_i [31:0] $end
   $var wire  1 M! PWRITE_i $end
   $var wire  1 I! clk $end
   $var wire  8 W! counters [7:0] $end
   $var wire  1 V! int_o $end
   $var wire  1 J! rst_n $end
   $var wire  8 U! upio_dir_o [7:0] $end
   $var wire  8 S! upio_in_i [7:0] $end
   $var wire  8 T! upio_out_o [7:0] $end
   $scope module sha $end
    $var wire 32 Y! APB_ADDR_WIDTH [31:0] $end
    $var wire  1 I! HCLK $end
    $var wire  1 J! HRESETn $end
    $var wire 12 K! PADDR [11:0] $end
    $var wire  1 O! PENABLE $end
    $var wire 32 P! PRDATA [31:0] $end
    $var wire  1 Q! PREADY $end
    $var wire  1 N! PSEL $end
    $var wire  1 R! PSLVERR $end
    $var wire 32 L! PWDATA [31:0] $end
    $var wire  1 M! PWRITE $end
    $var wire  1 1 done $end
    $var wire  1 >! hash_en $end
    $var wire  1 N hash_flag $end
    $var wire 256 3 hashed_data [255:0] $end
    $var wire  1 V! int_o $end
    $var wire  8 L r_ctrl [7:0] $end
    $var wire 256 ; r_hashed_data [255:0] $end
    $var wire  1 P r_int_flag $end
    $var wire 24 2 r_message [23:0] $end
    $var wire 32 C r_out0 [31:0] $end
    $var wire 32 D r_out1 [31:0] $end
    $var wire 32 E r_out2 [31:0] $end
    $var wire 32 F r_out3 [31:0] $end
    $var wire 32 G r_out4 [31:0] $end
    $var wire 32 H r_out5 [31:0] $end
    $var wire 32 I r_out6 [31:0] $end
    $var wire 32 J r_out7 [31:0] $end
    $var wire  2 S r_stm [1:0] $end
    $var wire  8 Q r_upio_paddir [7:0] $end
    $var wire  8 R r_upio_padout [7:0] $end
    $var wire  6 X! s_apb_addr [5:0] $end
    $var wire  1 @! s_apb_read $end
    $var wire  1 ?! s_apb_write $end
    $var wire  1 O s_int_en $end
    $var wire  8 M s_status [7:0] $end
    $var wire  2 A! s_stm_n [1:0] $end
    $var wire 32 K unused_data [31:0] $end
    $var wire  8 U! upio_dir_o [7:0] $end
    $var wire  8 S! upio_in_i [7:0] $end
    $var wire  8 T! upio_out_o [7:0] $end
    $scope module sha_top $end
     $var wire 32 Z! H0 [31:0] $end
     $var wire 32 [! H1 [31:0] $end
     $var wire 32 \! H2 [31:0] $end
     $var wire 32 ]! H3 [31:0] $end
     $var wire 32 ^! H4 [31:0] $end
     $var wire 32 _! H5 [31:0] $end
     $var wire 32 `! H6 [31:0] $end
     $var wire 32 a! H7 [31:0] $end
     $var wire 32 b! K00 [31:0] $end
     $var wire 32 c! K01 [31:0] $end
     $var wire 32 d! K02 [31:0] $end
     $var wire 32 e! K03 [31:0] $end
     $var wire 32 f! K04 [31:0] $end
     $var wire 32 g! K05 [31:0] $end
     $var wire 32 h! K06 [31:0] $end
     $var wire 32 i! K07 [31:0] $end
     $var wire 32 j! K08 [31:0] $end
     $var wire 32 k! K09 [31:0] $end
     $var wire 32 l! K10 [31:0] $end
     $var wire 32 m! K11 [31:0] $end
     $var wire 32 n! K12 [31:0] $end
     $var wire 32 o! K13 [31:0] $end
     $var wire 32 p! K14 [31:0] $end
     $var wire 32 q! K15 [31:0] $end
     $var wire 32 r! K16 [31:0] $end
     $var wire 32 s! K17 [31:0] $end
     $var wire 32 t! K18 [31:0] $end
     $var wire 32 u! K19 [31:0] $end
     $var wire 32 v! K20 [31:0] $end
     $var wire 32 w! K21 [31:0] $end
     $var wire 32 x! K22 [31:0] $end
     $var wire 32 y! K23 [31:0] $end
     $var wire 32 z! K24 [31:0] $end
     $var wire 32 {! K25 [31:0] $end
     $var wire 32 |! K26 [31:0] $end
     $var wire 32 }! K27 [31:0] $end
     $var wire 32 ~! K28 [31:0] $end
     $var wire 32 !" K29 [31:0] $end
     $var wire 32 "" K30 [31:0] $end
     $var wire 32 #" K31 [31:0] $end
     $var wire 32 $" K32 [31:0] $end
     $var wire 32 %" K33 [31:0] $end
     $var wire 32 &" K34 [31:0] $end
     $var wire 32 '" K35 [31:0] $end
     $var wire 32 (" K36 [31:0] $end
     $var wire 32 )" K37 [31:0] $end
     $var wire 32 *" K38 [31:0] $end
     $var wire 32 +" K39 [31:0] $end
     $var wire 32 ," K40 [31:0] $end
     $var wire 32 -" K41 [31:0] $end
     $var wire 32 ." K42 [31:0] $end
     $var wire 32 /" K43 [31:0] $end
     $var wire 32 0" K44 [31:0] $end
     $var wire 32 1" K45 [31:0] $end
     $var wire 32 2" K46 [31:0] $end
     $var wire 32 3" K47 [31:0] $end
     $var wire 32 4" K48 [31:0] $end
     $var wire 32 5" K49 [31:0] $end
     $var wire 32 6" K50 [31:0] $end
     $var wire 32 7" K51 [31:0] $end
     $var wire 32 8" K52 [31:0] $end
     $var wire 32 9" K53 [31:0] $end
     $var wire 32 :" K54 [31:0] $end
     $var wire 32 ;" K55 [31:0] $end
     $var wire 32 <" K56 [31:0] $end
     $var wire 32 =" K57 [31:0] $end
     $var wire 32 >" K58 [31:0] $end
     $var wire 32 ?" K59 [31:0] $end
     $var wire 32 @" K60 [31:0] $end
     $var wire 32 A" K61 [31:0] $end
     $var wire 32 B" K62 [31:0] $end
     $var wire 32 C" K63 [31:0] $end
     $var wire 32 2! a_in [31:0] $end
     $var wire 32 W a_out [31:0] $end
     $var wire 32 3! b_in [31:0] $end
     $var wire 32 X b_out [31:0] $end
     $var wire 32 4! c_in [31:0] $end
     $var wire 32 Y c_out [31:0] $end
     $var wire  1 I! clk $end
     $var wire  7 T cycle [6:0] $end
     $var wire 32 5! d_in [31:0] $end
     $var wire 32 Z d_out [31:0] $end
     $var wire 32 6! e_in [31:0] $end
     $var wire 32 [ e_out [31:0] $end
     $var wire 32 7! f_in [31:0] $end
     $var wire 32 \ f_out [31:0] $end
     $var wire 32 8! g_in [31:0] $end
     $var wire 32 ] g_out [31:0] $end
     $var wire 32 9! h_in [31:0] $end
     $var wire 32 ^ h_out [31:0] $end
     $var wire 32 1! k [31:0] $end
     $var wire 24 2 msg_in [23:0] $end
     $var wire 256 3 msg_out [255:0] $end
     $var wire  7 U next_cycle [6:0] $end
     $var wire  1 1 ready $end
     $var wire  1 J! rst_n $end
     $var wire  1 >! valid $end
     $var wire 32 F! w0 [31:0] $end
     $var wire 32 # w1 [31:0] $end
     $var wire 32 , w10 [31:0] $end
     $var wire 32 - w11 [31:0] $end
     $var wire 32 . w12 [31:0] $end
     $var wire 32 / w13 [31:0] $end
     $var wire 32 0 w14 [31:0] $end
     $var wire 32 G! w15 [31:0] $end
     $var wire 32 _ w16 [31:0] $end
     $var wire 32 ` w17 [31:0] $end
     $var wire 32 a w18 [31:0] $end
     $var wire 32 b w19 [31:0] $end
     $var wire 32 $ w2 [31:0] $end
     $var wire 32 c w20 [31:0] $end
     $var wire 32 d w21 [31:0] $end
     $var wire 32 e w22 [31:0] $end
     $var wire 32 f w23 [31:0] $end
     $var wire 32 g w24 [31:0] $end
     $var wire 32 h w25 [31:0] $end
     $var wire 32 i w26 [31:0] $end
     $var wire 32 j w27 [31:0] $end
     $var wire 32 k w28 [31:0] $end
     $var wire 32 l w29 [31:0] $end
     $var wire 32 % w3 [31:0] $end
     $var wire 32 m w30 [31:0] $end
     $var wire 32 n w31 [31:0] $end
     $var wire 32 o w32 [31:0] $end
     $var wire 32 p w33 [31:0] $end
     $var wire 32 q w34 [31:0] $end
     $var wire 32 r w35 [31:0] $end
     $var wire 32 s w36 [31:0] $end
     $var wire 32 t w37 [31:0] $end
     $var wire 32 u w38 [31:0] $end
     $var wire 32 v w39 [31:0] $end
     $var wire 32 & w4 [31:0] $end
     $var wire 32 w w40 [31:0] $end
     $var wire 32 x w41 [31:0] $end
     $var wire 32 y w42 [31:0] $end
     $var wire 32 z w43 [31:0] $end
     $var wire 32 { w44 [31:0] $end
     $var wire 32 | w45 [31:0] $end
     $var wire 32 } w46 [31:0] $end
     $var wire 32 ~ w47 [31:0] $end
     $var wire 32 !! w48 [31:0] $end
     $var wire 32 "! w49 [31:0] $end
     $var wire 32 ' w5 [31:0] $end
     $var wire 32 #! w50 [31:0] $end
     $var wire 32 $! w51 [31:0] $end
     $var wire 32 %! w52 [31:0] $end
     $var wire 32 &! w53 [31:0] $end
     $var wire 32 '! w54 [31:0] $end
     $var wire 32 (! w55 [31:0] $end
     $var wire 32 )! w56 [31:0] $end
     $var wire 32 *! w57 [31:0] $end
     $var wire 32 +! w58 [31:0] $end
     $var wire 32 ,! w59 [31:0] $end
     $var wire 32 ( w6 [31:0] $end
     $var wire 32 -! w60 [31:0] $end
     $var wire 32 .! w61 [31:0] $end
     $var wire 32 /! w62 [31:0] $end
     $var wire 32 0! w63 [31:0] $end
     $var wire 32 ) w7 [31:0] $end
     $var wire 32 * w8 [31:0] $end
     $var wire 32 + w9 [31:0] $end
     $var wire 32 C! w_15 [31:0] $end
     $var wire 32 B! w_16 [31:0] $end
     $var wire 32 E! w_2 [31:0] $end
     $var wire 32 D! w_7 [31:0] $end
     $var wire 32 V w_ex [31:0] $end
     $var wire 32 H! w_in [31:0] $end
     $scope module E $end
      $var wire  1 I! clk $end
      $var wire  1 J! rst_n $end
      $var wire 32 V w [31:0] $end
      $var wire 32 C! w_15 [31:0] $end
      $var wire 32 B! w_16 [31:0] $end
      $var wire 32 E! w_2 [31:0] $end
      $var wire 32 D! w_7 [31:0] $end
     $upscope $end
     $scope module M $end
      $var wire 32 2! a_in [31:0] $end
      $var wire 32 W a_out [31:0] $end
      $var wire 32 3! b_in [31:0] $end
      $var wire 32 X b_out [31:0] $end
      $var wire 32 4! c_in [31:0] $end
      $var wire 32 Y c_out [31:0] $end
      $var wire 32 <! ch [31:0] $end
      $var wire  1 I! clk $end
      $var wire 32 5! d_in [31:0] $end
      $var wire 32 Z d_out [31:0] $end
      $var wire 32 6! e_in [31:0] $end
      $var wire 32 [ e_out [31:0] $end
      $var wire 32 7! f_in [31:0] $end
      $var wire 32 \ f_out [31:0] $end
      $var wire 32 8! g_in [31:0] $end
      $var wire 32 ] g_out [31:0] $end
      $var wire 32 9! h_in [31:0] $end
      $var wire 32 ^ h_out [31:0] $end
      $var wire 32 1! k [31:0] $end
      $var wire 32 =! maj [31:0] $end
      $var wire  1 J! rst_n $end
      $var wire 32 :! s0 [31:0] $end
      $var wire 32 ;! s1 [31:0] $end
      $var wire 32 H! w [31:0] $end
     $upscope $end
    $upscope $end
   $upscope $end
  $upscope $end
 $upscope $end
$enddefinitions $end


#1
b00000000000000000000000000000000 #
b00000000000000000000000000000000 $
b00000000000000000000000000000000 %
b00000000000000000000000000000000 &
b00000000000000000000000000000000 '
b00000000000000000000000000000000 (
b00000000000000000000000000000000 )
b00000000000000000000000000000000 *
b00000000000000000000000000000000 +
b00000000000000000000000000000000 ,
b00000000000000000000000000000000 -
b00000000000000000000000000000000 .
b00000000000000000000000000000000 /
b00000000000000000000000000000000 0
01
b111110011010101101010110 2
b1100110101011110110000010011010101001110111010111010110101111100110011111110100000001110010000111110001000101001101010001101100011101101010100100010101011110110100001110101111000101001111110100001000100101011111001100101001100000000100110011011000001101000 3
b1010110100011111010001011001111001011010000110111000010100011110010101101101000100001000010111001110100111001111000001001011001011000110011011010100110101011000000001101010110111110101001110111101110001101011010000011111010010110100001100100011101111111101 ;
b10101101000111110100010110011110 C
b01011010000110111000010100011110 D
b01010110110100010000100001011100 E
b11101001110011110000010010110010 F
b11000110011011010100110101011000 G
b00000110101011011111010100111011 H
b11011100011010110100000111110100 I
b10110100001100100011101111111101 J
b10011000001110110110101100010000 K
b01110110 L
b00000000 M
1N
0O
0P
b00011101 Q
b00100010 R
b10 S
b1100011 T
b1100100 U
b01100000011000101011111001101111 V
b01100011010101001101101011001110 W
b10010011100000111111111011110111 X
b10010011011110010001101011010001 Y
b00111100110110011011001110011110 Z
b10011100010000111101100001110111 [
b11101100010110001100000101101110 \
b11110001101010000000110010101000 ]
b10100100101110001110001101001111 ^
b11000011010010011011001011101111 _
b01011101010101001011010010101001 `
b11011011111010001101100101101101 a
b01100110000010000011011100111001 b
b01001110111100101001101001111000 c
b00001010100001111110100011101010 d
b01111101111001110011100011000010 e
b11011011011100110000000101010100 f
b00100010101010100100100101010100 g
b01101000101000001100101100100011 h
b11101000011000111101000110011101 i
b00100111000010000100001110110011 j
b00111001101111000111111110101101 k
b00110100111010010101000011010101 l
b11001110101110010111101100101110 m
b00001010100001111011100011001111 n
b00011111111111111011001100000101 o
b00100000101110001001010111010111 p
b00101111110110100000010010001001 q
b11011010110010000100001011110110 r
b10000110010110001001111110101111 s
b10000000111110011111010111101111 t
b01011011111000000010011110011101 u
b10010100111111100100001100111111 v
b11011011000111001100111011001111 w
b00001111011101011110001100101010 x
b00001001000101001110001101110111 y
b01001011100101001001101010011010 z
b01011001000001101000011100001011 {
b00100100100011000001111101010011 |
b00011011011110000100001010101111 }
b10001000111100111011100110001100 ~
b00010001110110101011001100000010 !!
b11001010100101110010101111111011 "!
b10011111001000000001010111101000 #!
b10010000000011111101100111000010 $!
b01101110011011011100110111011101 %!
b01000011011010000100000111001000 &!
b10010011011010001101100001100100 '!
b00001001011101101010011001100001 (!
b10100001100100010011101011100101 )!
b00000101111010011101110100100001 *!
b10010000110000000010011111110011 +!
b01101101011100010000010001011001 ,!
b00000010011010010001100011110101 -!
b10011100000100000001011010111101 .!
b01000000101101000001101101111110 /!
b01010111101010100010011001100010 0!
b01000101011101101001111111001010 1!
b00011100100100001100011101000101 2!
b01100011011100011110000001011000 3!
b11101100100010110001101100010000 4!
b11111111110011111101111001100000 5!
b10001101101110000000001101110011 6!
b10010011011011111000110011111100 7!
b00010011010100011100000100111101 8!
b10010101110011111010010001101100 9!
b00111110000100011100000100100101 :!
b01111100010001101110111011001011 ;!
b10010011011010011100000001111100 <!
b01101100100100011100001101010000 =!
1>!
0?!
0@!
b10 A!
b00000000000000000000000000000000 B!
b00000000000000000000000000000000 C!
b00000000000000000000000000000000 D!
b00000000000000000000000000000000 E!
b11111001101010110101011010000000 F!
b00000000000000000000000000011000 G!
b00000111101110100001111010010000 H!
0I!
1J!
b010100000010 K!
b01001000110000101110000011100100 L!
0M!
0N!
0O!
b00000000000000000000000000000000 P!
0Q!
0R!
b00100001 S!
b00100010 T!
b00011101 U!
0V!
b00000000 W!
b000000 X!
b00000000000000000000000000001100 Y!
b01101010000010011110011001100111 Z!
b10111011011001111010111010000101 [!
b00111100011011101111001101110010 \!
b10100101010011111111010100111010 ]!
b01010001000011100101001001111111 ^!
b10011011000001010110100010001100 _!
b00011111100000111101100110101011 `!
b01011011111000001100110100011001 a!
b01000010100010100010111110011000 b!
b01110001001101110100010010010001 c!
b10110101110000001111101111001111 d!
b11101001101101011101101110100101 e!
b00111001010101101100001001011011 f!
b01011001111100010001000111110001 g!
b10010010001111111000001010100100 h!
b10101011000111000101111011010101 i!
b11011000000001111010101010011000 j!
b00010010100000110101101100000001 k!
b00100100001100011000010110111110 l!
b01010101000011000111110111000011 m!
b01110010101111100101110101110100 n!
b10000000110111101011000111111110 o!
b10011011110111000000011010100111 p!
b11000001100110111111000101110100 q!
b11100100100110110110100111000001 r!
b11101111101111100100011110000110 s!
b00001111110000011001110111000110 t!
b00100100000011001010000111001100 u!
b00101101111010010010110001101111 v!
b01001010011101001000010010101010 w!
b01011100101100001010100111011100 x!
b01110110111110011000100011011010 y!
b10011000001111100101000101010010 z!
b10101000001100011100011001101101 {!
b10110000000000110010011111001000 |!
b10111111010110010111111111000111 }!
b11000110111000000000101111110011 ~!
b11010101101001111001000101000111 !"
b00000110110010100110001101010001 ""
b00010100001010010010100101100111 #"
b00100111101101110000101010000101 $"
b00101110000110110010000100111000 %"
b01001101001011000110110111111100 &"
b01010011001110000000110100010011 '"
b01100101000010100111001101010100 ("
b01110110011010100000101010111011 )"
b10000001110000101100100100101110 *"
b10010010011100100010110010000101 +"
b10100010101111111110100010100001 ,"
b10101000000110100110011001001011 -"
b11000010010010111000101101110000 ."
b11000111011011000101000110100011 /"
b11010001100100101110100000011001 0"
b11010110100110010000011000100100 1"
b11110100000011100011010110000101 2"
b00010000011010101010000001110000 3"
b00011001101001001100000100010110 4"
b00011110001101110110110000001000 5"
b00100111010010000111011101001100 6"
b00110100101100001011110010110101 7"
b00111001000111000000110010110011 8"
b01001110110110001010101001001010 9"
b01011011100111001100101001001111 :"
b01101000001011100110111111110011 ;"
b01110100100011111000001011101110 <"
b01111000101001010110001101101111 ="
b10000100110010000111100000010100 >"
b10001100110001110000001000001000 ?"
b10010000101111101111111111111010 @"
b10100100010100000110110011101011 A"
b10111110111110011010001111110111 B"
b11000110011100010111100011110010 C"
#2
#3
#4
#5
#6
#7
#8
#9
#10
b000000000000000000000000 2
b0110101000001001111001100110011110111011011001111010111010000101001111000110111011110011011100101010010101001111111101010011101001010001000011100101001001111111100110110000010101101000100011000001111110000011110110011010101101011011111000001100110100011001 3
b0000000000000000000000000000000000000000000000000000000000000000000000000000000000000000000000000000000000000000000000000000000000000000000000000000000000000000000000000000000000000000000000000000000000000000000000000000000000000000000000000000000000000000 ;
b00000000000000000000000000000000 C
b00000000000000000000000000000000 D
b00000000000000000000000000000000 E
b00000000000000000000000000000000 F
b00000000000000000000000000000000 G
b00000000000000000000000000000000 H
b00000000000000000000000000000000 I
b00000000000000000000000000000000 J
b00000000 L
0N
b00000000 Q
b00000000 R
b00 S
b0000000 T
b0000001 U
b00000000000000000000000000000000 V
b00000000000000000000000000000000 W
b00000000000000000000000000000000 X
b00000000000000000000000000000000 Y
b00000000000000000000000000000000 Z
b00000000000000000000000000000000 [
b00000000000000000000000000000000 \
b00000000000000000000000000000000 ]
b00000000000000000000000000000000 ^
b01000010100010100010111110011000 1!
b01101010000010011110011001100111 2!
b10111011011001111010111010000101 3!
b00111100011011101111001101110010 4!
b10100101010011111111010100111010 5!
b01010001000011100101001001111111 6!
b10011011000001010110100010001100 7!
b00011111100000111101100110101011 8!
b01011011111000001100110100011001 9!
b11001110001000001011010001111110 :!
b00110101100001110010011100101011 ;!
b00011111100001011100100110001100 <!
b00111010011011111110011001100111 =!
0>!
b01 A!
b00000000000000000000000000000000 F!
b00000000000000000000000000000000 G!
b00000000000000000000000000000000 H!
1I!
0J!
b000000001100 K!
b00000000000000000000000000000001 L!
1M!
1N!
1O!
b00000000 T!
b00000000 U!
b00000001 W!
b000011 X!
#11
#12
#13
#14
#15
#16
#17
#18
#19
#20
0I!
1J!
#21
#22
#23
#24
#25
#26
#27
#28
#29
#30
b0110011000010010011011101011010000100101011100011001010011101100111101111101011010100001111101111110000110111110111010001010110011101001110101100011010100100001111011000001001110111011000010111011101010001001010000100011011101111011011001001010011011000100 3
b01 S
b11111100000010001000100001001101 W
b01101010000010011110011001100111 X
b10111011011001111010111010000101 Y
b00111100011011101111001101110010 Z
b10011000110001111110001010100010 [
b01010001000011100101001001111111 \
b10011011000001010110100010001100 ]
b00011111100000111101100110101011 ^
1?!
b00 A!
1I!
1Q!
b00000010 W!
#31
#32
#33
#34
#35
#36
#37
#38
#39
#40
0I!
#41
#42
#43
#44
#45
#46
#47
#48
#49
#50
b00000001 L
1O
b00 S
0?!
1I!
0N!
0O!
0Q!
b00000011 W!
#51
#52
#53
#54
#55
#56
#57
#58
#59
#60
0I!
#61
#62
#63
#64
#65
#66
#67
#68
#69
#70
b01 A!
1I!
b000000110000 K!
b00000000001100010011000100110000 L!
1N!
1O!
b00000100 W!
b001100 X!
#71
#72
#73
#74
#75
#76
#77
#78
#79
#80
0I!
#81
#82
#83
#84
#85
#86
#87
#88
#89
#90
b01 S
1?!
b00 A!
1I!
1Q!
b00000101 W!
#91
#92
#93
#94
#95
#96
#97
#98
#99
#100
0I!
#101
#102
#103
#104
#105
#106
#107
#108
#109
#110
b001100010011000100110000 2
1N
b00 S
0?!
b10 A!
1I!
0N!
0O!
0Q!
b00000110 W!
#111
#112
#113
#114
#115
#116
#117
#118
#119
#120
0I!
#121
#122
#123
#124
#125
#126
#127
#128
#129
#130
b10 S
1>!
b00110001001100010011000010000000 B!
b00110001001100010011000010000000 F!
b00000000000000000000000000011000 G!
b00110001001100010011000010000000 H!
1I!
b00000111 W!
#131
#132
#133
#134
#135
#136
#137
#138
#139
#140
0I!
#141
#142
#143
#144
#145
#146
#147
#148
#149
#150
b1001011101000011100111110011010000100101011100011001010011101100111101111101011010100001111101111110000110111110111010001010110000011011000001110110010110100001111011000001001110111011000010111011101010001001010000100011011101111011011001001010011011000100 3
b0000001 T
b0000010 U
b00110001001100010011000010000000 V
b00101101001110011011100011001101 W
b11001001111110010001001100100010 [
b01110001001101110100010010010001 1!
b00101101001110011011100011001101 2!
b01101010000010011110011001100111 3!
b10111011011001111010111010000101 4!
b00111100011011101111001101110010 5!
b11001001111110010001001100100010 6!
b01010001000011100101001001111111 7!
b10011011000001010110100010001100 8!
b00011111100000111101100110101011 9!
b01101011110001000011001101001010 :!
b00010011111101110100101000001010 ;!
b01010011000011000111101010101110 <!
b00101011001010011010111011000101 =!
b00000000000000000000000000000000 B!
b00000000000000000000000000011000 E!
b00000000000000000000000000000000 H!
1I!
b00001000 W!
#151
#152
#153
#154
#155
#156
#157
#158
#159
#160
0I!
#161
#162
#163
#164
#165
#166
#167
#168
#169
#170
b1111100010110110101010110110101011101000101000010110011101010010101001100111100011011001110110010110000010110111101000111011111110000101001111000010100011100101011001001111111001111011101011100111000010010010001011000010101011110110111001100011010110100101 3
b0000010 T
b0000011 U
b00000000000011110000000000000000 V
b10001110101011001100010100000011 W
b00101101001110011011100011001101 X
b01101010000010011110011001100111 Y
b10111011011001111010111010000101 Z
b00110100001011011101011001100110 [
b11001001111110010001001100100010 \
b01010001000011100101001001111111 ]
b10011011000001010110100010001100 ^
b00110001001100010011000010000000 _
b10110101110000001111101111001111 1!
b10001110101011001100010100000011 2!
b00101101001110011011100011001101 3!
b01101010000010011110011001100111 4!
b10111011011001111010111010000101 5!
b00110100001011011101011001100110 6!
b11001001111110010001001100100010 7!
b01010001000011100101001001111111 8!
b10011011000001010110100010001100 9!
b01111000101000110100101000011100 :!
b01000010111111010000000111111001 ;!
b01000001001010110001001000111011 <!
b00101110001010011110010001000111 =!
b00110001001100010011000010000000 E!
1I!
b00001001 W!
#171
#172
#173
#174
#175
#176
#177
#178
#179
#180
0I!
#181
#182
#183
#184
#185
#186
#187
#188
#189
#190
b1110010111000101100011010101100101001010000101000111001110001000011010011010100010101100001111110000111101011001110110111010000111100001011001000111100110010011110011110011001100111110111100101110100101111100111011001100110110101100111011110001111110011000 3
b0000011 T
b0000100 U
b10111110010111000101001011110010 V
b01111011101110111010011011110010 W
b10001110101011001100010100000011 X
b00101101001110011011100011001101 Y
b01101010000010011110011001100111 Z
b10010000010101100010011100010100 [
b00110100001011011101011001100110 \
b11001001111110010001001100100010 ]
b01010001000011100101001001111111 ^
b00000000000011110000000000000000 `
b11101001101101011101101110100101 1!
b01111011101110111010011011110010 2!
b10001110101011001100010100000011 3!
b00101101001110011011100011001101 4!
b01101010000010011110011001100111 5!
b10010000010101100010011100010100 6!
b00110100001011011101011001100110 7!
b11001001111110010001001100100010 8!
b01010001000011100101001001111111 9!
b01000111111001101111110110001111 :!
b10011011110000001101100000010000 ;!
b01011001101011010001011000100110 <!
b00101111101110011010010011000011 =!
b00000000000011110000000000000000 E!
1I!
b00001010 W!
#191
#192
#193
#194
#195
#196
#197
#198
#199
#200
0I!
#201
#202
#203
#204
#205
#206
#207
#208
#209
#210
b0001000111011100101001010001001100110111001000110101010101110111110010110001101110111000011101011101001010001001101011100000011111101011010010100101010101000000001010110101101110001111101000000101001110110001101100000001000100100101110110011110000000111011 3
b0000100 T
b0000101 U
b01100000000000000000001111000110 V
b10100111110100101011111010101100 W
b01111011101110111010011011110010 X
b10001110101011001100010100000011 Y
b00101101001110011011100011001101 Z
b10011010001111000000001011000001 [
b10010000010101100010011100010100 \
b00110100001011011101011001100110 ]
b11001001111110010001001100100010 ^
b10111110010111000101001011110010 a
b00111001010101101100001001011011 1!
b10100111110100101011111010101100 2!
b01111011101110111010011011110010 3!
b10001110101011001100010100000011 4!
b00101101001110011011100011001101 5!
b10011010001111000000001011000001 6!
b10010000010101100010011100010100 7!
b00110100001011011101011001100110 8!
b11001001111110010001001100100010 9!
b10010110011010110010001110100001 :!
b01000000010110101101011101000110 ;!
b10110100000101011101011000100110 <!
b10101111101110101010011010100010 =!
b10111110010111000101001011110010 E!
1I!
b00001011 W!
#211
#212
#213
#214
#215
#216
#217
#218
#219
#220
0I!
#221
#222
#223
#224
#225
#226
#227
#228
#229
#230
b1010011111110000001100111001001101100011001110100110110100110001101110000010101010011010011001000011001111111100101110100011110101110110000010001000111000110101001101010100000101101011010011011010111111011010000000001011111110010000000011101010001101111111 3
b0000101 T
b0000110 U
b10100011000010001001111111110001 V
b00111101111001100100110100101100 W
b10100111110100101011111010101100 X
b01111011101110111010011011110010 Y
b10001110101011001100010100000011 Z
b00100100111110100011101110110110 [
b10011010001111000000001011000001 \
b10010000010101100010011100010100 ]
b00110100001011011101011001100110 ^
b01100000000000000000001111000110 b
b01011001111100010001000111110001 1!
b00111101111001100100110100101100 2!
b10100111110100101011111010101100 3!
b01111011101110111010011011110010 4!
b10001110101011001100010100000011 5!
b00100100111110100011101110110110 6!
b10011010001111000000001011000001 7!
b10010000010101100010011100010100 8!
b00110100001011011101011001100110 9!
b11111111001011001100110010001110 :!
b11010011010010101010110010111011 ;!
b10010000001111000000011010000000 <!
b00111111111100101010111010101100 =!
b01100000000000000000001111000110 E!
1I!
b00001100 W!
#231
#232
#233
#234
#235
#236
#237
#238
#239
#240
0I!
#241
#242
#243
#244
#245
#246
#247
#248
#249
#250
b1001101011001110111111010011001111111001010011011111101110110001111001000100000110110010000111100010000100001011100111000010110011010001011000001011001100010100101111111111111110100100010000101011100110111111110111000110110011101100001101101111010000101101 3
b0000110 T
b0000111 U
b00000001100000111111110000000000 V
b00110000110001010001011011001100 W
b00111101111001100100110100101100 X
b10100111110100101011111010101100 Y
b01111011101110111010011011110010 Z
b10000000010100100110000010010101 [
b00100100111110100011101110110110 \
b10011010001111000000001011000001 ]
b10010000010101100010011100010100 ^
b10100011000010001001111111110001 c
b10010010001111111000001010100100 1!
b00110000110001010001011011001100 2!
b00111101111001100100110100101100 3!
b10100111110100101011111010101100 4!
b01111011101110111010011011110010 5!
b10000000010100100110000010010101 6!
b00100100111110100011101110110110 7!
b10011010001111000000001011000001 8!
b10010000010101100010011100010100 9!
b10101110000010111111001101011000 :!
b01101101100000010000100100001110 ;!
b00011010011111100010001011010100 <!
b00110101110001100001111010101100 =!
b00000000000000000000000000011000 D!
b10100011000010001001111111110001 E!
1I!
b00001101 W!
#251
#252
#253
#254
#255
#256
#257
#258
#259
#260
0I!
#261
#262
#263
#264
#265
#266
#267
#268
#269
#270
b1111100001110000110011100000010111101100001011001100010101010001011110100101010101000000100111100100110100100010101100111110011001110111010111101100111100001011000110110101011111001001001000010100010001111110000101010110000111110110000111001100111111011010 3
b0000111 T
b0001000 U
b01011100001011100010011111011010 V
b10001110011001101110011110011110 W
b00110000110001010001011011001100 X
b00111101111001100100110100101100 Y
b10100111110100101011111010101100 Z
b00100110010100000111110010001100 [
b10000000010100100110000010010101 \
b00100100111110100011101110110110 ]
b10011010001111000000001011000001 ^
b00000001100000111111110000000000 d
b10101011000111000101111011010101 1!
b10001110011001101110011110011110 2!
b00110000110001010001011011001100 3!
b00111101111001100100110100101100 4!
b10100111110100101011111010101100 5!
b00100110010100000111110010001100 6!
b10000000010100100110000010010101 7!
b00100100111110100011101110110110 8!
b10011010001111000000001011000001 9!
b00000100111100111011000011101001 :!
b10001001001000111100110111101110 ;!
b00000000111110100110001110110110 <!
b00111100111001100100011110001100 =!
b00110001001100010011000010000000 D!
b00000001100000111111110000000000 E!
1I!
b00001110 W!
#271
#272
#273
#274
#275
#276
#277
#278
#279
#280
0I!
#281
#282
#283
#284
#285
#286
#287
#288
#289
